[gd_scene load_steps=2 format=3 uid="uid://c2h58615xnbo"]

[sub_resource type="BoxShape3D" id="BoxShape3D_ti7sp"]

[node name="DeathCam" type="RigidBody3D"]

[node name="CollisionShape3D" type="CollisionShape3D" parent="."]
shape = SubResource("BoxShape3D_ti7sp")

[node name="Camera3D" type="Camera3D" parent="."]
