[gd_scene format=3 uid="uid://byoehw236ucir"]

[node name="WinScene" type="Control"]
layout_mode = 3
anchors_preset = 15
anchor_right = 1.0
anchor_bottom = 1.0
grow_horizontal = 2
grow_vertical = 2
size_flags_horizontal = 3
size_flags_vertical = 3

[node name="U WIN" type="RichTextLabel" parent="."]
layout_mode = 1
anchors_preset = 5
anchor_left = 0.5
anchor_right = 0.5
offset_left = -76.5
offset_right = 76.5
offset_bottom = 107.0
grow_horizontal = 2
text = "U WON!!!!!"
fit_content = true

[node name="Button" type="Button" parent="."]
layout_mode = 1
anchors_preset = 8
anchor_left = 0.5
anchor_top = 0.5
anchor_right = 0.5
anchor_bottom = 0.5
offset_left = -64.0
offset_top = -15.5
offset_right = 64.0
offset_bottom = 15.5
grow_horizontal = 2
grow_vertical = 2
text = "BACK TO MENU"
